{
  "data": [
    {
      "ask": "Latar belakang pembuatan aplikasi",
      "answer": "pihak dari bina marga jakarta hanya menyediakan pengaduan melalui sosial media @BinaMargaDKI dan hotline atau Whatsapp 021-3844-444, Ini menjadi sedikit hambatan untuk para warga jakarta yang ingin segera melaporkan kejadian langsung di tempat dengan mudah dan sampai saat ini masih kurangnya informasi terkait titik lokasi jalan rusak yang berada di wilayah jakarta Selatan"
    },
    {
      "ask": "Tujuan pembuatan aplikasi",
      "answer": "Membuat aplikasi, untuk mempermudah masyarakat melakukan pengaduan secara online. Membuat aplikasi untuk mempermudah penyampaian informasi kepada pihak terkait."
    },
    {
      "ask": "Tentang Pengembang",
      "answer": "Nama : Indra setiawanNama : Indra setiawan\nTempat Tanggal Lahir : Tegal , 28 April \nAlamat : JL. Condet raya , Kramat Jati , Kota Jakarta Timur\nNo hp : 08908444148\nEmail : iindrastyawan87@gmail.com"
    }
  ]
}